…
library(tidyverse)
library(data.table)

# Determine the average rating of each movie in edx_train:
edx_train_movie_rating_avg <- edx_train %>% group_by(movieId) %>% summarise(movie_rating_avg = mean(rating))

edx_train_movie_rating_avg
# A tibble: 10,677 x 2
   movieId movie_rating_avg
     <dbl>            <dbl>
 1       1             3.93
 2       2             3.21
 3       3             3.14
 4       4             2.86
 5       5             3.06
 6       6             3.82
 7       7             3.36
 8       8             3.14
 9       9             3.01
10      10             3.43
# ... with 10,667 more rows
…
